<?xml version="1.0" encoding="UTF-8" standalone="no"?>
<!-- Created with Inkscape (http://www.inkscape.org/) -->

<svg
   xmlns:dc="http://purl.org/dc/elements/1.1/"
   xmlns:cc="http://creativecommons.org/ns#"
   xmlns:rdf="http://www.w3.org/1999/02/22-rdf-syntax-ns#"
   xmlns:svg="http://www.w3.org/2000/svg"
   xmlns="http://www.w3.org/2000/svg"
   xmlns:xlink="http://www.w3.org/1999/xlink"
   xmlns:sodipodi="http://sodipodi.sourceforge.net/DTD/sodipodi-0.dtd"
   xmlns:inkscape="http://www.inkscape.org/namespaces/inkscape"
   width="90.399948"
   height="90.399948"
   id="svg5453"
   version="1.1"
   inkscape:version="0.91 r13725"
   sodipodi:docname="tryton-doc.svg">
  <defs
     id="defs5455">
    <linearGradient
       inkscape:collect="always"
       id="linearGradient4256">
      <stop
         style="stop-color:#60c0f4;stop-opacity:1"
         offset="0"
         id="stop4258" />
      <stop
         style="stop-color:#b9e9ff;stop-opacity:1"
         offset="1"
         id="stop4260" />
    </linearGradient>
    <linearGradient
       id="linearGradient4410"
       inkscape:collect="always">
      <stop
         id="stop4412"
         offset="0"
         style="stop-color:#383e51;stop-opacity:1" />
      <stop
         id="stop4414"
         offset="1"
         style="stop-color:#655c6f;stop-opacity:0" />
    </linearGradient>
    <linearGradient
       inkscape:collect="always"
       xlink:href="#linearGradient4256"
       id="linearGradient4254"
       x1="12"
       y1="19.999973"
       x2="12"
       y2="4"
       gradientUnits="userSpaceOnUse" />
    <linearGradient
       inkscape:collect="always"
       xlink:href="#linearGradient4410"
       id="linearGradient4285"
       x1="16.000011"
       y1="16"
       x2="32"
       y2="31.999973"
       gradientUnits="userSpaceOnUse" />
    <linearGradient
       inkscape:collect="always"
       xlink:href="#linearGradient3816"
       id="linearGradient3822"
       x1="14.536"
       y1="23.732"
       x2="34.144001"
       y2="23.732"
       gradientUnits="userSpaceOnUse"
       gradientTransform="matrix(0.92724773,0,0,0.92724773,-0.19115502,2.8039956)" />
    <linearGradient
       id="linearGradient3816">
      <stop
         style="stop-color:#ffffff;stop-opacity:1;"
         offset="0"
         id="stop3818" />
      <stop
         style="stop-color:#ffffff;stop-opacity:0.78431374;"
         offset="1"
         id="stop3820" />
    </linearGradient>
    <linearGradient
       inkscape:collect="always"
       xlink:href="#linearGradient3816"
       id="linearGradient3018"
       x1="14.536"
       y1="23.732"
       x2="34.144001"
       y2="23.732"
       gradientUnits="userSpaceOnUse"
       gradientTransform="matrix(0.92724773,0,0,0.92724773,-0.19115502,2.8039956)" />
    <linearGradient
       id="linearGradient3020">
      <stop
         style="stop-color:#ffffff;stop-opacity:1;"
         offset="0"
         id="stop3022" />
      <stop
         style="stop-color:#ffffff;stop-opacity:0.78431374;"
         offset="1"
         id="stop3024" />
    </linearGradient>
    <linearGradient
       y2="23.732"
       x2="34.144001"
       y1="23.732"
       x1="14.536"
       gradientTransform="matrix(0.92724773,0,0,0.92724773,-0.19115502,2.8039956)"
       gradientUnits="userSpaceOnUse"
       id="linearGradient3028"
       xlink:href="#linearGradient3816"
       inkscape:collect="always" />
    <linearGradient
       y2="23.732"
       x2="34.144001"
       y1="23.732"
       x1="14.536"
       gradientTransform="matrix(0.92724773,0,0,0.92724773,-0.19115502,2.8039956)"
       gradientUnits="userSpaceOnUse"
       id="linearGradient3030"
       xlink:href="#linearGradient3816"
       inkscape:collect="always" />
    <linearGradient
       inkscape:collect="always"
       xlink:href="#linearGradient4148"
       id="linearGradient4156"
       x1="91.584351"
       y1="291.19205"
       x2="446.96262"
       y2="291.19205"
       gradientUnits="userSpaceOnUse"
       gradientTransform="matrix(0.17471966,0,0,0.17471966,366.18024,385.06686)" />
    <linearGradient
       inkscape:collect="always"
       id="linearGradient4148">
      <stop
         style="stop-color:#00313d;stop-opacity:1;"
         offset="0"
         id="stop4150" />
      <stop
         style="stop-color:#00627a;stop-opacity:0"
         offset="1"
         id="stop4152" />
    </linearGradient>
  </defs>
  <sodipodi:namedview
     id="base"
     pagecolor="#ffffff"
     bordercolor="#666666"
     borderopacity="1.0"
     inkscape:pageopacity="0"
     inkscape:pageshadow="2"
     inkscape:zoom="0.99999999"
     inkscape:cx="93.409316"
     inkscape:cy="-54.954968"
     inkscape:document-units="px"
     inkscape:current-layer="layer1"
     showgrid="false"
     fit-margin-top="0"
     fit-margin-left="0"
     fit-margin-right="0"
     fit-margin-bottom="0"
     inkscape:window-width="1366"
     inkscape:window-height="722"
     inkscape:window-x="0"
     inkscape:window-y="24"
     inkscape:window-maximized="1"
     inkscape:showpageshadow="false"
     borderlayer="true"
     showguides="false"
     inkscape:snap-bbox="true"
     inkscape:snap-global="true">
    <inkscape:grid
       type="xygrid"
       id="grid4063"
       originx="15.699962"
       originy="-69.300024" />
    <sodipodi:guide
       position="15.699974,-21.300027"
       orientation="4,0"
       id="guide4146" />
    <sodipodi:guide
       position="54.699962,-25.300023"
       orientation="0,48"
       id="guide4148" />
    <sodipodi:guide
       position="63.699974,-25.300027"
       orientation="-4,0"
       id="guide4150" />
    <sodipodi:guide
       position="63.699974,-21.300027"
       orientation="0,-48"
       id="guide4152" />
    <sodipodi:guide
       position="15.699974,-65.299997"
       orientation="4,0"
       id="guide4154" />
    <sodipodi:guide
       position="15.699974,-69.299997"
       orientation="0,48"
       id="guide4156" />
    <sodipodi:guide
       position="63.699974,-69.299997"
       orientation="-4,0"
       id="guide4158" />
    <sodipodi:guide
       position="63.699974,-65.299997"
       orientation="0,-48"
       id="guide4160" />
    <sodipodi:guide
       position="63.699974,-21.299997"
       orientation="0,-4"
       id="guide4162" />
    <sodipodi:guide
       position="55.699962,-46.300023"
       orientation="48,0"
       id="guide4164" />
    <sodipodi:guide
       position="59.699974,-69.299997"
       orientation="0,4"
       id="guide4166" />
    <sodipodi:guide
       position="63.699974,-69.299997"
       orientation="-48,0"
       id="guide4168" />
    <sodipodi:guide
       position="19.700004,-21.299997"
       orientation="0,-4"
       id="guide4170" />
    <sodipodi:guide
       position="15.700004,-21.299997"
       orientation="48,0"
       id="guide4172" />
    <sodipodi:guide
       position="15.700004,-69.299997"
       orientation="0,4"
       id="guide4174" />
    <sodipodi:guide
       position="23.699974,-25.300027"
       orientation="13.999969,0"
       id="guide4888" />
    <sodipodi:guide
       position="37.699974,-25.300027"
       orientation="0,-14"
       id="guide4894" />
    <sodipodi:guide
       position="31.699974,-37.299997"
       orientation="16,0"
       id="guide4216" />
    <sodipodi:guide
       position="31.699974,-53.299997"
       orientation="0,16"
       id="guide4218" />
    <sodipodi:guide
       position="47.699974,-53.299997"
       orientation="-16,0"
       id="guide4220" />
    <sodipodi:guide
       position="47.699974,-37.299997"
       orientation="0,-16"
       id="guide4222" />
  </sodipodi:namedview>
  <metadata
     id="metadata5458">
    <rdf:RDF>
      <cc:Work
         rdf:about="">
        <dc:format>image/svg+xml</dc:format>
        <dc:type
           rdf:resource="http://purl.org/dc/dcmitype/StillImage" />
        <dc:title></dc:title>
      </cc:Work>
    </rdf:RDF>
  </metadata>
  <g
     inkscape:label="Capa 1"
     inkscape:groupmode="layer"
     id="layer1"
     transform="translate(-368.87147,-388.09803)">
    <text
       xml:space="preserve"
       style="font-style:normal;font-weight:normal;font-size:40px;line-height:125%;font-family:Sans;letter-spacing:0px;word-spacing:0px;fill:#000000;fill-opacity:1;stroke:none"
       x="23.3125"
       y="36.5625"
       id="text3051"
       sodipodi:linespacing="125%"
       transform="translate(384.57143,499.798)"><tspan
         sodipodi:role="line"
         id="tspan3053"
         x="23.3125"
         y="36.5625" /></text>
    <circle
       style="color:#000000;clip-rule:nonzero;display:inline;overflow:visible;visibility:visible;opacity:0.7;mix-blend-mode:normal;color-interpolation:sRGB;color-interpolation-filters:linearRGB;solid-color:#000000;solid-opacity:1;fill:#49d0f2;fill-opacity:1;fill-rule:nonzero;stroke:#0088aa;stroke-width:3.24489355;stroke-miterlimit:4;stroke-dasharray:none;stroke-opacity:1;marker:none;color-rendering:auto;image-rendering:auto;shape-rendering:auto;text-rendering:auto;enable-background:accumulate"
       id="path4134"
       cx="414.07144"
       cy="433.298"
       r="43.577526" />
    <path
       inkscape:connector-curvature="0"
       d="m 442.34367,423.97089 -29.13535,33.98397 c -1.43495,1.67415 -3.43394,2.53319 -5.44695,2.53319 -1.59876,0 -3.20611,-0.54222 -4.54706,-1.65565 l -18.20955,-15.10391 c -3.14045,-2.60323 -3.65063,-7.35667 -1.13636,-10.61276 2.51077,-3.25974 7.09702,-3.78707 10.23747,-1.1799 l 12.8088,10.62372 24.54208,-28.62619 c 2.66915,-3.116 7.27484,-3.39983 10.28209,-0.62681 3.00725,2.77309 3.27779,7.54473 0.60483,10.66434 z"
       id="path3-3"
       style="color:#000000;display:inline;overflow:visible;visibility:visible;fill:#ffffff;fill-opacity:1;fill-rule:nonzero;stroke:url(#linearGradient4156);stroke-width:0.21368214;stroke-linecap:butt;stroke-linejoin:miter;stroke-miterlimit:4;stroke-dasharray:none;stroke-dashoffset:0;stroke-opacity:1;marker:none;enable-background:accumulate"
       sodipodi:nodetypes="ccsccccccsc" />
  </g>
</svg>
